<?xml version="1.0" encoding="utf-8"?>
<!-- Generator: Adobe Illustrator 19.0.0, SVG Export Plug-In . SVG Version: 6.00 Build 0)  -->
<svg version="1.1" id="Layer_1" xmlns="http://www.w3.org/2000/svg" xmlns:xlink="http://www.w3.org/1999/xlink" x="0px" y="0px"
	 viewBox="-239.7 406.1 15.5 15.5" style="enable-background:new -239.7 406.1 15.5 15.5;" xml:space="preserve">
<style type="text/css">
	.st0{fill:none;stroke:#000000;stroke-miterlimit:10;}
	.st1{fill:none;stroke:#000000;stroke-linecap:round;stroke-linejoin:round;stroke-miterlimit:10;}
</style>
<g>
	<circle class="st0" cx="-233.5" cy="412.3" r="5.7"/>
	<line class="st1" x1="-229.5" y1="416.3" x2="-224.7" y2="421.1"/>
	<line class="st1" x1="-235.8" y1="412.3" x2="-231.2" y2="412.3"/>
	<line class="st1" x1="-233.5" y1="410" x2="-233.5" y2="414.5"/>
</g>
</svg>
