<?xml version="1.0" encoding="utf-8"?>
<!-- Generator: Adobe Illustrator 19.0.0, SVG Export Plug-In . SVG Version: 6.00 Build 0)  -->
<svg version="1.1" id="Layer_1" xmlns="http://www.w3.org/2000/svg" xmlns:xlink="http://www.w3.org/1999/xlink" x="0px" y="0px"
	 viewBox="245.3 313.3 534.2 136.8" style="enable-background:new 245.3 313.3 534.2 136.8;" xml:space="preserve">
<style type="text/css">
	.st0{enable-background:new    ;}
</style>
<path d="M622.3,411.8c-0.3-15.2-0.5-30.4-0.8-45.7c0-0.7,0.1-1.7-0.3-2.2c-2.2-2.3-3-5.3-4.5-8c-3.6-6.5-6.9-12.9-12.9-17.8
	c-5.3-4.3-3.7-15.6,2.1-19.4c0.6-0.4,1.3-0.7,2-0.9c5.8-1.5,10.6,3.2,10.1,9.8c-0.3,4.2-0.4,8.4,1,12.5c1.5,4.4,2.9,8.8,4.4,13.2
	c0.3,0.8,0.3,2,1.6,1.8c1.5-0.2,0.8-1.5,0.7-2.2c-0.7-5.5-1.5-11-2.3-16.5c-0.8-5.8-2.1-11.6-1.7-17.6c0.2-3.5,2.6-5.6,6.1-5.5
	c3.3,0,5.8,1.8,7.9,4.2c5.8,6.9,6.6,17.4,1.7,25.7c-1.7,2.8-3.3,5.7-3.8,9c-0.3,1.7-0.7,3.3-1,4.9c-0.4,2.7-1.9,5.2-2.2,7.7
	c-1.4,11.3-2.1,22.7-3.2,34c-0.6,5.9-1.5,11.8-3,18.2C622.7,415.4,622.3,413.7,622.3,411.8z M633.7,318.9c-0.7-0.9-1.6-1.7-2.5-2.4
	c-1.3-0.9-2.8-1.1-4.2-0.2c-1.4,0.9-1.5,2.4-1.2,3.8c0.5,2.3,1.2,4.5,1.7,6.8c1.1,4.6,1.2,9.2,1,13.9c0,1.5,0,3.2,1.6,3.9
	c1.8,0.8,3.4,0,4.8-1.3c2.3-2.2,2.7-5.3,3.1-8.2c0.1-0.9,0.1-1.8,0.1-2.8C637.9,327.5,636.9,322.8,633.7,318.9z M604,333.4
	c0.6,3.4,2.7,6.5,5.4,6.4c3.1-0.2,5.5-3.2,5.9-6.2c0.7-5.3-2.4-10.9-5.8-10.8C606.8,322.8,602.9,326.9,604,333.4z"/>
<g class="st0">
	<path d="M245.3,356.9h20.6v8.4c3-3.5,6-6,9-7.5c3-1.5,6.7-2.2,11-2.2c4.6,0,8.2,0.8,10.9,2.4c2.7,1.6,4.9,4.1,6.6,7.3
		c3.5-3.8,6.6-6.3,9.5-7.7c2.9-1.4,6.4-2,10.6-2c6.2,0,11,1.8,14.5,5.5c3.5,3.7,5.2,9.4,5.2,17.2v36.2H321v-32.8
		c0-2.6-0.5-4.5-1.5-5.8c-1.5-2-3.3-3-5.5-3c-2.6,0-4.7,0.9-6.3,2.8s-2.4,4.9-2.4,9.1v29.7h-22.1v-31.8c0-2.5-0.1-4.3-0.4-5.2
		c-0.5-1.4-1.3-2.6-2.5-3.5s-2.5-1.3-4.1-1.3c-2.5,0-4.6,1-6.3,2.9c-1.6,1.9-2.5,5.1-2.5,9.4v29.4h-22.1V356.9z"/>
	<path d="M350,356.9h23.3l11.9,38.4l11-38.4H418l-22.9,61.6c-2.6,7-5.3,11.8-8,14.2c-3.8,3.5-9.7,5.2-17.5,5.2
		c-3.2,0-8.1-0.4-14.8-1.3l-1.7-15.4c3.2,1,6.7,1.5,10.6,1.5c2.6,0,4.7-0.6,6.3-1.8c1.6-1.2,3-3.3,4.1-6.4L350,356.9z"/>
</g>
<g>
	<path d="M458.9,319.5H480V411h10v1.8h-20.8v-11.3h-0.3c-0.3,1-0.9,2.3-1.6,3.8s-1.7,2.9-3,4.3s-3,2.6-5,3.6s-4.5,1.5-7.4,1.5
		c-3.8,0-7.4-0.8-10.8-2.5c-3.4-1.6-6.4-3.8-9-6.6c-2.6-2.8-4.6-5.9-6.1-9.5s-2.3-7.4-2.3-11.3s0.7-7.6,2.2-11.1s3.5-6.6,6-9.3
		c2.5-2.6,5.4-4.7,8.7-6.3c3.3-1.6,6.8-2.4,10.5-2.4c4.7,0,8.6,1.2,11.5,3.5s5,5.2,6.2,8.5h0.3v-46.3h-10v-1.9H458.9z M436.5,383.1
		c0,4.5,0.1,8.6,0.4,12.2c0.3,3.7,0.9,6.8,1.9,9.4s2.6,4.6,4.7,6s4.9,2.1,8.4,2.1c3.6,0,6.5-0.8,8.7-2.3c2.2-1.6,3.9-3.6,5.1-6
		c1.2-2.5,2-5.2,2.5-8.2c0.4-3,0.6-6,0.6-8.8c0-3.4-0.1-6.3-0.2-8.7c-0.1-2.5-0.4-4.6-0.7-6.5c-0.3-1.9-0.8-3.5-1.4-4.9
		s-1.3-2.7-2.2-3.9c-1.3-1.7-3-3.1-5-4.3c-2.1-1.1-4.7-1.7-7.9-1.7c-3,0-5.5,0.6-7.4,1.8c-1.9,1.2-3.5,2.9-4.5,5.2
		c-1.1,2.2-1.8,4.9-2.3,8.1C436.7,375.6,436.5,379.2,436.5,383.1z"/>
	<path d="M512.5,380.7c0,0.9,0,1.7-0.1,2.7c0,0.9-0.1,2-0.1,3.4c0,2.8,0.2,5.8,0.5,8.9s1.1,5.9,2.3,8.4c1.2,2.5,2.9,4.6,5.2,6.2
		s5.3,2.5,9.1,2.5c3.8,0,6.9-0.6,9.4-1.7s4.4-2.5,5.8-4.1s2.5-3.2,3.2-4.9c0.7-1.6,1.2-3,1.6-4l1.9,0.4c-0.3,1-0.8,2.3-1.5,4.1
		c-0.7,1.8-1.9,3.5-3.5,5.3s-3.8,3.3-6.5,4.7c-2.7,1.3-6.2,2-10.5,2s-8.3-0.7-12-2.1s-6.8-3.4-9.5-6s-4.7-5.7-6.2-9.3
		c-1.5-3.6-2.2-7.6-2.2-12c0-3.8,0.8-7.5,2.3-11.1s3.6-6.7,6.2-9.5s5.7-5,9.3-6.7c3.5-1.7,7.3-2.5,11.4-2.5c2.4,0,5,0.4,7.8,1.3
		c2.8,0.9,5.3,2.3,7.7,4.2c2.4,1.9,4.4,4.5,6,7.7c1.6,3.2,2.4,7.2,2.4,11.9h-40V380.7z M539.2,378.9c0.2-1.2,0.3-2.3,0.3-3.4
		c0-1,0-2.1,0-3.2c0-2.9-0.3-5.3-0.8-7.2c-0.6-1.9-1.3-3.4-2.3-4.5s-2.2-1.9-3.6-2.4c-1.4-0.5-3-0.7-4.6-0.7c-2.9,0-5.4,0.6-7.2,1.7
		c-1.9,1.2-3.4,2.7-4.5,4.7s-2,4.3-2.5,6.9c-0.6,2.6-0.9,5.3-1.1,8.2h26.3V378.9z"/>
	<path d="M565.6,394.6h1.4c0.6,2.1,1.4,4.2,2.3,6.3c0.9,2.1,2.2,4.1,3.8,5.8c1.6,1.8,3.6,3.2,5.9,4.3c2.3,1.1,5.1,1.7,8.4,1.7
		c2.8,0,5.2-0.8,7.4-2.5c2.2-1.7,3.2-4.4,3.2-8.2c0-3.3-0.8-5.6-2.5-6.9c-1.7-1.3-3.6-2.4-5.9-3.2l-10.1-3.5c-1.3-0.4-2.7-1-4.2-1.6
		s-2.9-1.6-4.2-2.7c-1.3-1.2-2.3-2.7-3.2-4.5c-0.8-1.8-1.2-4.1-1.2-7c0-2.4,0.5-4.7,1.4-6.7c0.9-2.1,2.2-3.9,3.9-5.4
		c1.6-1.6,3.6-2.8,5.9-3.6c2.3-0.9,4.8-1.3,7.4-1.3c1.9,0,3.4,0.2,4.6,0.5s2.2,0.6,3,0.9c0.9,0.3,1.6,0.6,2.3,0.9s1.5,0.5,2.5,0.5
		c0.9,0,1.6-0.3,2.1-1h1.4V372h-1.4c-0.6-1.9-1.3-3.7-2.1-5.5s-1.7-3.3-2.8-4.7c-1.1-1.4-2.4-2.5-4-3.2c-1.6-0.8-3.5-1.2-5.6-1.2
		c-4.1,0-7.4,0.9-9.6,2.8c-2.3,1.9-3.4,4.3-3.4,7.4c0,2.8,1,4.9,2.9,6.3s4.8,2.7,8.6,3.9l9.4,3.1c4.1,1.4,7.4,3.3,10,5.7
		c2.6,2.4,3.9,5.6,3.9,9.6c0,2.3-0.5,4.6-1.4,6.9c-0.9,2.2-2.2,4.2-4,5.9c-1.8,1.7-3.9,3-6.5,4.1c-2.5,1-5.5,1.6-8.7,1.6
		c-1.9,0-3.6-0.2-5.2-0.6s-3.1-0.8-4.4-1.2c-1.3-0.4-2.6-0.8-3.7-1.2c-1.1-0.4-2.2-0.6-3.1-0.6c-1,0-1.6,0.2-2.1,0.6
		c-0.4,0.4-0.8,0.8-1,1.2h-1.4L565.6,394.6L565.6,394.6z"/>
	<path d="M632.8,411v1.8"/>
	<path d="M642.1,404.4c0-2.3,0.4-4.3,1.3-6s1.9-3.1,3.2-4.4c1.2-1.3,2.6-2.3,4-3c1.4-0.8,2.7-1.4,3.8-1.9c-5-3.5-7.5-8.1-7.5-14
		c0-3,0.7-5.7,2.2-8.2c1.5-2.4,3.3-4.5,5.6-6.1c2.2-1.7,4.7-3,7.4-3.8c2.7-0.9,5.3-1.3,7.8-1.3c3.9,0,7.2,0.8,10,2.3
		c2.8,1.6,4.9,3,6.1,4.3c0.9-1.6,2.3-3.1,4.2-4.5s4.2-2.1,6.9-2.1c1.7,0,3.3,0.4,4.8,1.1s2.2,2.3,2.2,4.7c0,1.6-0.5,2.7-1.5,3.5
		s-2,1.2-3,1.2c-1.2,0-2.1-0.3-2.6-1s-1-1.4-1.4-2.2c-0.4-0.8-0.8-1.5-1.2-2.2s-1.1-1-1.9-1c-0.9,0-1.7,0.4-2.7,1.1
		c-0.9,0.7-1.7,1.6-2.4,2.5c0.8,0.9,1.8,2.3,3,4.4s1.8,4.7,1.8,7.8c0,2.6-0.6,5-1.9,7.1c-1.3,2.2-3,4.1-5.1,5.7s-4.6,2.9-7.4,3.8
		c-2.8,0.9-5.7,1.4-8.6,1.4c-3,0-5.7-0.4-7.9-1.2c-2.2-0.8-4-1.5-5.2-2.1c-1,0.4-2,0.9-3,1.4c-1.1,0.5-2.1,1.2-3,1.9
		c-0.9,0.8-1.7,1.7-2.3,2.8c-0.6,1.1-0.9,2.3-0.9,3.7c0,1.3,0.3,2.4,0.8,3.2c0.5,0.9,1.2,1.5,2,1.9s1.7,0.7,2.8,0.9
		c1,0.2,2.1,0.3,3.2,0.3h20.4c6,0,10.8,1.4,14.4,4.3c3.6,2.9,5.4,7.4,5.4,13.7c0,3.8-0.8,7.2-2.5,10.4c-1.6,3.1-3.8,5.8-6.5,8.1
		c-2.7,2.3-5.8,4.1-9.4,5.3c-3.5,1.3-7.2,1.9-10.9,1.9c-3.4,0-6.4-0.4-9.3-1.2c-2.8-0.8-5.2-1.8-7.3-3.2c-2.1-1.3-3.7-3-4.9-4.9
		s-1.7-4-1.7-6.3c0-2.2,0.5-4.3,1.4-6.2c0.9-1.9,2.1-3.5,3.5-4.9s3-2.7,4.9-3.7c1.8-1,3.6-1.9,5.4-2.6v-0.3c-5.7,0-9.9-0.9-12.6-2.8
		C643.5,412,642.1,408.8,642.1,404.4z M661.5,416.6c-1.1,0.7-2.3,1.4-3.4,2.1c-1.2,0.7-2.2,1.7-3.1,2.8c-0.9,1.1-1.6,2.4-2.2,3.9
		c-0.6,1.5-0.8,3.4-0.8,5.6c0,3.1,0.5,5.7,1.6,7.7s2.5,3.7,4.1,4.9c1.7,1.3,3.6,2.1,5.6,2.7c2.1,0.5,4.1,0.8,6.1,0.8
		c3.1,0,5.9-0.5,8.5-1.4c2.5-1,4.7-2.2,6.6-3.8c1.9-1.6,3.3-3.4,4.3-5.5s1.5-4.2,1.5-6.5c0-4.8-1.3-8.3-3.9-10.3
		c-2.6-2-6.2-3-10.8-3L661.5,416.6L661.5,416.6z M682.5,374.6c0-2-0.1-4-0.4-6c-0.3-2-0.8-3.9-1.6-5.6s-2.1-3-3.8-4.1
		c-1.7-1-3.9-1.5-6.8-1.5c-4.4,0-7.7,1.3-10,4c-2.2,2.7-3.4,7.1-3.4,13.2c0,2.6,0.2,4.9,0.6,7c0.4,2.1,1.1,3.9,2.1,5.4
		s2.4,2.7,4.1,3.4c1.7,0.8,3.9,1.2,6.6,1.2c4.5,0,7.7-1.4,9.6-4.2C681.6,384.5,682.5,380.3,682.5,374.6z"/>
	<path d="M706.8,411h10v-51.9h-10v-1.8h20.8v13.8h0.3c0.5-1.1,1.3-2.5,2.3-4.3c1-1.7,2.3-3.4,4.1-5c1.7-1.6,3.9-3,6.5-4.2
		s5.7-1.7,9.4-1.7c5.7,0,10.3,1.4,13.9,4.1c3.6,2.8,5.4,7.2,5.4,13.2V411h10v1.8h-31.1V411h10v-41.8c0-3.4-0.8-6.1-2.4-8.3
		c-1.6-2.2-4.1-3.2-7.4-3.2c-2.8,0-5.4,0.6-7.9,1.8c-2.5,1.2-4.7,2.9-6.6,5c-1.9,2.2-3.4,4.7-4.5,7.6s-1.6,6.1-1.6,9.6V411h10v1.8
		h-31.1V411H706.8z"/>
</g>
<g class="st0">
	<path d="M419.6,440.9c2.3,0.4,4.3,1.5,4.3,4c0,1.7-0.9,3-2.4,3.8c-1.3,0.7-2.9,1-4.9,1h-5.4V449c2.2-0.2,2.4-0.3,2.4-2.3v-10.1
		c0-2-0.1-2.2-2.2-2.3v-0.8h6.4c1.9,0,2.9,0.3,3.7,0.8c0.9,0.6,1.4,1.8,1.4,2.9C422.8,439.5,420.8,440.5,419.6,440.9L419.6,440.9z
		 M416.7,440.6c2.7,0,4-1.1,4-3.2c0-1.6-0.9-3.2-3.5-3.2c-0.6,0-1.3,0.1-1.5,0.3c-0.3,0.2-0.3,0.4-0.3,1.2v4.8H416.7z M415.4,446.6
		c0,1.8,0.4,2.2,2.1,2.2c2.2,0,4.1-1,4.1-3.7c0-2.6-1.9-3.7-4.9-3.7h-1.3V446.6z"/>
	<path d="M440.5,434.2c-1.8,0.2-2,0.4-3.1,2.1c-1.1,1.8-2,3.3-3.2,5.5c-0.3,0.5-0.4,0.8-0.4,1.4v3.4c0,2,0.2,2.2,2.6,2.4v0.8h-7V449
		c2.3-0.1,2.5-0.3,2.5-2.4v-3.4c0-0.4-0.1-0.7-0.5-1.5c-1-1.7-1.9-3.3-3.2-5.5c-1-1.7-1.3-2-2.8-2.1v-0.8h5.8v0.8
		c-1.8,0.2-1.8,0.5-1.2,1.4c1,1.9,2.3,4,3.4,5.9c1-1.7,2.2-4,3-5.6c0.6-1.3,0.5-1.4-1.5-1.6v-0.8h5.6V434.2z"/>
	<path d="M453.8,433.4c1.7,0,3.2,0.3,4.2,1.1c0.9,0.7,1.6,1.8,1.6,3.5c0,3.3-2.4,4.9-4.9,5.2c-0.4,0.1-0.9,0.1-1.2,0l-1.9-0.5v3.9
		c0,2.2,0.2,2.2,2.6,2.4v0.8h-6.8V449c2.1-0.2,2.3-0.3,2.3-2.4v-10c0-2.2-0.3-2.3-2.2-2.4v-0.8H453.8z M451.7,441.8
		c0.3,0.1,1.1,0.3,1.9,0.3c1.8,0,3.8-0.9,3.8-4c0-2.7-1.7-3.9-3.9-3.9c-0.7,0-1.3,0.1-1.5,0.3c-0.2,0.2-0.3,0.5-0.3,1.2V441.8z"/>
	<path d="M461.6,449.8V449c2.1-0.1,2.3-0.3,2.3-2.4v-10c0-2.1-0.2-2.2-2.3-2.4v-0.8h6.5v0.8c-2.1,0.2-2.3,0.3-2.3,2.4v10
		c0,2.2,0.2,2.3,2.3,2.4v0.8H461.6z"/>
	<path d="M487.3,434.2c-1.4,0.1-2.1,0.4-2.2,1.4c0,0.8-0.1,1.9-0.1,4.3v10h-0.8l-10.6-13.1h-0.1v6.3c0,2.3,0.1,3.5,0.1,4.2
		c0.2,1.3,0.8,1.6,2.5,1.7v0.8h-6.1V449c1.4-0.1,2.1-0.4,2.2-1.6c0.1-0.8,0.2-2,0.2-4.3v-5.5c0-1.8-0.1-1.8-0.5-2.5
		c-0.5-0.6-1.1-0.8-2.3-0.9v-0.8h3.6l10.5,12.8h0.1v-6.3c0-2.4-0.1-3.5-0.1-4.2c-0.2-1.1-0.8-1.5-2.5-1.5v-0.8h6.1V434.2z"/>
	<path d="M501,449.8c-2-2.3-4-4.6-6.4-7.3c-0.6-0.7-1-0.8-1.4-0.7v4.8c0,2.1,0.2,2.3,2.3,2.4v0.8h-6.4V449c1.9-0.1,2.2-0.3,2.2-2.4
		v-9.8c0-2.3-0.3-2.4-2.3-2.5v-0.8h6.4v0.8c-2,0.2-2.2,0.3-2.2,2.5v4.3c0.6-0.1,1.1-0.5,1.8-1.1c1.4-1.3,3-3,4.3-4.4
		c0.7-0.9,0.7-1.1-0.4-1.2l-0.6-0.1v-0.8h6v0.8c-2,0.2-2.5,0.4-4.1,1.9c-0.9,0.8-2.7,2.7-4.5,4.5c1.9,2.4,4.8,5.6,5.9,6.7
		c1.3,1.4,1.9,1.6,3.2,1.7v0.8H501z"/>
	<path d="M525.6,449.8V449c2.1-0.2,2.2-0.3,2.2-3.1l-0.1-10.2h-0.1l-6.2,13.9h-0.5l-5.6-13.5h-0.1l-0.3,7.3
		c-0.1,2.2-0.1,3.2-0.1,4.1c0.1,1.2,0.7,1.4,2.4,1.5v0.8h-5.9V449c1.4-0.1,2-0.4,2.1-1.5c0.1-0.8,0.3-1.9,0.5-4.6l0.3-5.2
		c0.2-3.2,0.1-3.3-2.2-3.5v-0.8h4l5.8,12.7l5.9-12.7h4.2v0.8c-2.2,0.2-2.4,0.2-2.3,2.9l0.2,8.8c0.1,2.8,0.2,2.9,2.4,3.1v0.8H525.6z"
		/>
	<path d="M543.9,449.8V449c1.7-0.2,1.9-0.4,1.6-1.3l-1.4-3.8h-5.5c-0.4,1-0.7,2-1.1,3.1c-0.6,1.7-0.3,1.9,1.6,2.1v0.8h-5.5V449
		c1.6-0.2,2-0.3,2.9-2.6l5.2-13.1l0.8-0.3c1.5,4.2,3.3,9.2,4.9,13.5c0.7,2.1,1.1,2.3,2.7,2.5v0.8H543.9z M541.4,436.1L541.4,436.1
		c-0.9,2.2-1.7,4.4-2.4,6.6h4.7L541.4,436.1z"/>
	<path d="M566.2,450c-0.4,0-0.7,0-1-0.1c-1.6-0.1-2.6-0.6-3.9-2.2c-0.9-1.2-1.8-2.9-2.5-4c-0.4-0.7-0.9-1-2.3-1h-0.9v3.9
		c0,2.1,0.2,2.3,2.3,2.4v0.8h-6.5V449c2.1-0.1,2.3-0.3,2.3-2.4v-10c0-2.2-0.2-2.2-2.2-2.4v-0.8h6.2c1.7,0,3,0.2,3.9,0.8
		c1,0.7,1.7,1.8,1.7,3.3c0,2.2-1.3,3.6-3.2,4.4c0.4,0.8,1.5,2.5,2.2,3.6c1,1.3,1.4,1.8,2,2.5c0.7,0.7,1.4,1.1,1.9,1.2L566.2,450z
		 M557,441.8c1.3,0,2.1-0.2,2.8-0.8c1-0.8,1.4-1.7,1.4-3.1c0-2.7-1.9-3.6-3.9-3.6c-0.7,0-1.2,0.1-1.4,0.2c-0.2,0.2-0.3,0.5-0.3,1.2
		v6.1H557z"/>
	<path d="M579.2,437.3c-0.2-1.2-0.4-1.8-0.7-2.2c-0.4-0.6-0.7-0.8-2.6-0.8h-1.9v12.3c0,2,0.2,2.2,2.6,2.3v0.8h-7.1V449
		c2.3-0.1,2.6-0.3,2.6-2.3v-12.3h-1.8c-1.9,0-2.4,0.2-2.7,0.7c-0.3,0.4-0.5,1.1-0.8,2.2h-0.8c0.1-1.5,0.2-3.1,0.3-4.5h0.5
		c0.4,0.6,0.7,0.6,1.4,0.6h9.9c0.7,0,0.8-0.1,1.2-0.6h0.6c0,1.2,0.1,3,0.3,4.4L579.2,437.3z"/>
	<path d="M581.7,449.8V449c2.1-0.1,2.3-0.3,2.3-2.4v-10c0-2.1-0.2-2.2-2.3-2.4v-0.8h6.5v0.8c-2.1,0.2-2.3,0.3-2.3,2.4v10
		c0,2.2,0.2,2.3,2.3,2.4v0.8H581.7z"/>
	<path d="M607.4,434.2c-1.4,0.1-2.1,0.4-2.2,1.4c0,0.8-0.1,1.9-0.1,4.3v10h-0.8l-10.6-13.1h-0.1v6.3c0,2.3,0.1,3.5,0.1,4.2
		c0.2,1.3,0.8,1.6,2.5,1.7v0.8h-6.1V449c1.4-0.1,2.1-0.4,2.2-1.6c0.1-0.8,0.2-2,0.2-4.3v-5.5c0-1.8-0.1-1.8-0.5-2.5
		c-0.5-0.6-1.1-0.8-2.3-0.9v-0.8h3.6l10.5,12.8h0.1v-6.3c0-2.4-0.1-3.5-0.1-4.2c-0.2-1.1-0.8-1.5-2.5-1.5v-0.8h6.1V434.2z"/>
	<path d="M609.1,449.8V449c2.1-0.1,2.3-0.3,2.3-2.4v-10c0-2.1-0.2-2.2-2.3-2.4v-0.8h6.5v0.8c-2.1,0.2-2.3,0.3-2.3,2.4v10
		c0,2.2,0.2,2.3,2.3,2.4v0.8H609.1z"/>
</g>
</svg>
