<?xml version="1.0" encoding="utf-8"?>
<!-- Generator: Adobe Illustrator 19.0.0, SVG Export Plug-In . SVG Version: 6.00 Build 0)  -->
<svg version="1.1" id="Layer_1" xmlns="http://www.w3.org/2000/svg" xmlns:xlink="http://www.w3.org/1999/xlink" x="0px" y="0px"
	 viewBox="0 0 282 215.7" style="enable-background:new 0 0 282 215.7;" xml:space="preserve">
<g>
	<path d="M234.1,44.5L192.3,3c-0.6-0.6-1.3-0.9-2.1-0.9c-0.8,0-1.6,0.3-2.1,0.9l-97.6,98.2l-0.1,0.1c0,0,0,0.1-0.1,0.1
		c-0.2,0.2-0.3,0.4-0.4,0.6c0,0,0,0,0,0.1s-0.1,0.2-0.1,0.3c0,0,0,0,0,0.1s-0.1,0.2-0.1,0.4l0,0l-6.8,39.2l0,0L81,152.9l-0.1,0.4
		c0,0.1,0,0.2,0,0.4l0,0c0,0.1,0,0.2,0,0.3l0,0c0,0.1,0,0.2,0,0.4c0,0,0,0,0,0.1c0,0.1,0,0.2,0.1,0.3l0,0c0.1,0.4,0.4,0.8,0.7,1.2
		l0,0l0,0l0.1,0.1l0.1,0.1l0,0c0.3,0.2,0.6,0.4,1,0.5h0.1c0.1,0,0.3,0.1,0.4,0.1c0.1,0,0.2,0,0.3,0c0.2,0,0.4,0,0.5,0l0.8-0.1
		l10.4-1.8l0,0l39.2-7l0,0c0.1,0,0.2-0.1,0.4-0.1c0,0,0,0,0.1,0c0.1,0,0.2-0.1,0.3-0.1h0.1c0.1-0.1,0.2-0.1,0.3-0.2l0,0
		c0.1-0.1,0.2-0.1,0.3-0.2c0,0,0.1,0,0.1-0.1l0.1-0.1L234,49C235.3,47.6,235.3,45.7,234.1,44.5z M96.2,148.5l-7-7l5.4-31.8
		l33.4,33.2L96.2,148.5z M87.8,150.1l0.2-1l0.8,0.8L87.8,150.1z"/>
	<path d="M167,155.2c-9.3-1.4-18.8-0.1-28.1,3.7c-9.3,3.8-16.2,9.2-20.3,13.1c-0.5,0.5-1.2,1.2-2.3,2.4
		c-3.6,3.7-11.1,11.5-19.7,17.9c-9.9,7.5-18.8,11.3-25.5,10.8c-4.6-0.3-8.3-2.5-11.5-6.5c-3.1-4-4.2-7.9-3.4-11.9
		c1.9-9.8,14.6-17.2,14.7-17.3c2.1-1.2,3-4,1.7-6.1c-1.2-2.1-4-3-6.1-1.7c-0.6,0.4-16.3,9.4-19.1,23.3c-1.3,6.7,0.3,13.1,5,19.1
		c4.8,6.2,10.9,9.7,18.1,10.1c0.5,0,1,0,1.5,0c18,0,37.6-17.9,50.8-31.5c0.8-0.9,1.6-1.6,1.9-2c4.4-4.2,20.6-17.5,40.9-14.4
		c17.3,2.6,33.1,16.1,47,40.2c1.2,2.1,4,2.9,6.1,1.6c2.1-1.2,2.9-4,1.6-6.1C205.1,173.2,187.1,158.2,167,155.2z"/>
</g>
</svg>
