{
  "prepare_queue": {
    "installed": [],
    "uninstalled": []
  },
  "config_munge": {
    "files": {}
  },
  "installed_plugins": {
    "cordova-plugin-facebook4": {
      "APP_ID": "141101123273269",
      "APP_NAME": "MyDesign",
      "ANDROID_SDK_VERSION": "4.+",
      "PACKAGE_NAME": "com.pinkmartini.mydesign"
    },
    "cordova-plugin-inappbrowser": {
      "PACKAGE_NAME": "com.pinkmartini.mydesign"
    },
    "cordova-plugin-network-information": {
      "PACKAGE_NAME": "com.pinkmartini.mydesign"
    },
    "cordova-plugin-splashscreen": {
      "PACKAGE_NAME": "com.pinkmartini.mydesign"
    },
    "cordova-plugin-whitelist": {
      "PACKAGE_NAME": "com.pinkmartini.mydesign"
    },
    "cordova-android-support-gradle-release": {
      "PACKAGE_NAME": "com.pinkmartini.mydesign"
    },
    "cordova-plugin-ios-camera-permissions": {
      "PACKAGE_NAME": "com.pinkmartini.mydesign"
    }
  },
  "dependent_plugins": {}
}