-- Merging decision tree log ---
manifest
ADDED from /home/bruno/projects/brlab/pink-martini/mydesign/platforms/android/app/src/main/AndroidManifest.xml:2:1-18:12
INJECTED from /home/bruno/projects/brlab/pink-martini/mydesign/platforms/android/app/src/main/AndroidManifest.xml:2:1-18:12
INJECTED from /home/bruno/projects/brlab/pink-martini/mydesign/platforms/android/app/src/main/AndroidManifest.xml:2:1-18:12
INJECTED from /home/bruno/projects/brlab/pink-martini/mydesign/platforms/android/app/src/main/AndroidManifest.xml:2:1-18:12
MERGED from [com.facebook.android:facebook-android-sdk:4.33.0] /home/bruno/.gradle/caches/transforms-1/files-1.1/facebook-android-sdk-4.33.0.aar/22de8b3f7bf20fe227bd1c2f19a6e21f/AndroidManifest.xml:21:1-31:12
MERGED from [:CordovaLib] /home/bruno/projects/brlab/pink-martini/mydesign/platforms/android/CordovaLib/build/intermediates/manifests/full/release/AndroidManifest.xml:20:1-27:12
MERGED from [com.facebook.android:facebook-login:4.33.0] /home/bruno/.gradle/caches/transforms-1/files-1.1/facebook-login-4.33.0.aar/3aa0478e4d971d9a54038182b76e4536/AndroidManifest.xml:21:1-31:12
MERGED from [com.facebook.android:facebook-share:4.33.0] /home/bruno/.gradle/caches/transforms-1/files-1.1/facebook-share-4.33.0.aar/88439531dfd0cd1c273cddc10b833fb8/AndroidManifest.xml:21:1-31:12
MERGED from [com.facebook.android:facebook-common:4.33.0] /home/bruno/.gradle/caches/transforms-1/files-1.1/facebook-common-4.33.0.aar/6e21fc9c3d492a3fe7f82626da25cb32/AndroidManifest.xml:21:1-36:12
MERGED from [com.facebook.android:facebook-places:4.33.0] /home/bruno/.gradle/caches/transforms-1/files-1.1/facebook-places-4.33.0.aar/36af5df1ed37b3f7192d1777df83580f/AndroidManifest.xml:21:1-31:12
MERGED from [com.facebook.android:facebook-applinks:4.33.0] /home/bruno/.gradle/caches/transforms-1/files-1.1/facebook-applinks-4.33.0.aar/b1629e5eb847b930f7a77b2a590ec04e/AndroidManifest.xml:21:1-31:12
MERGED from [com.facebook.android:facebook-messenger:4.33.0] /home/bruno/.gradle/caches/transforms-1/files-1.1/facebook-messenger-4.33.0.aar/c5080523398476033c641d791a6d70a7/AndroidManifest.xml:21:1-31:12
MERGED from [com.facebook.android:facebook-core:4.33.0] /home/bruno/.gradle/caches/transforms-1/files-1.1/facebook-core-4.33.0.aar/c6e66cfeae98fe979ba81904047bfd1e/AndroidManifest.xml:21:1-53:12
MERGED from [com.android.support:support-v4:27.1.1] /home/bruno/.gradle/caches/transforms-1/files-1.1/support-v4-27.1.1.aar/47aec8e4e19314ffbbf1dab23e35bf5d/AndroidManifest.xml:17:1-22:12
MERGED from [com.android.support:appcompat-v7:27.1.1] /home/bruno/.gradle/caches/transforms-1/files-1.1/appcompat-v7-27.1.1.aar/ab83d2bda4822d4c1793a95280f08f98/AndroidManifest.xml:17:1-22:12
MERGED from [com.android.support:customtabs:27.1.1] /home/bruno/.gradle/caches/transforms-1/files-1.1/customtabs-27.1.1.aar/9cfed86e93b9bc34ac2e6e86d2d796ae/AndroidManifest.xml:17:1-22:12
MERGED from [com.android.support:support-fragment:27.1.1] /home/bruno/.gradle/caches/transforms-1/files-1.1/support-fragment-27.1.1.aar/7c02f0945a2de97e3849fc8290fb4901/AndroidManifest.xml:17:1-22:12
MERGED from [com.android.support:animated-vector-drawable:27.1.1] /home/bruno/.gradle/caches/transforms-1/files-1.1/animated-vector-drawable-27.1.1.aar/2d14247fd1361dca4a4a972935289f29/AndroidManifest.xml:17:1-22:12
MERGED from [com.android.support:support-core-ui:27.1.1] /home/bruno/.gradle/caches/transforms-1/files-1.1/support-core-ui-27.1.1.aar/b7217dcb701e113d2abdc17d6753a5ff/AndroidManifest.xml:17:1-22:12
MERGED from [com.android.support:support-core-utils:27.1.1] /home/bruno/.gradle/caches/transforms-1/files-1.1/support-core-utils-27.1.1.aar/89097c62fef285f8c99ec4e5ea4659bb/AndroidManifest.xml:17:1-22:12
MERGED from [com.android.support:cardview-v7:27.1.1] /home/bruno/.gradle/caches/transforms-1/files-1.1/cardview-v7-27.1.1.aar/0d58d4a3a177227ac353030e592b7d4a/AndroidManifest.xml:17:1-22:12
MERGED from [com.android.support:support-media-compat:27.1.1] /home/bruno/.gradle/caches/transforms-1/files-1.1/support-media-compat-27.1.1.aar/4f65de837edf8c5ef3108ef3ebd4ad12/AndroidManifest.xml:17:1-22:12
MERGED from [com.android.support:support-vector-drawable:27.1.1] /home/bruno/.gradle/caches/transforms-1/files-1.1/support-vector-drawable-27.1.1.aar/734c3bc8f5193dfae92e0d31107f1caf/AndroidManifest.xml:17:1-22:12
MERGED from [com.android.support:support-compat:27.1.1] /home/bruno/.gradle/caches/transforms-1/files-1.1/support-compat-27.1.1.aar/df6590bfd528b4a76132013e45354d61/AndroidManifest.xml:17:1-22:12
MERGED from [android.arch.lifecycle:runtime:1.1.0] /home/bruno/.gradle/caches/transforms-1/files-1.1/runtime-1.1.0.aar/cd981e2d2fa9524b86d3ef9a45339fdd/AndroidManifest.xml:17:1-22:12
MERGED from [android.arch.lifecycle:livedata-core:1.1.0] /home/bruno/.gradle/caches/transforms-1/files-1.1/livedata-core-1.1.0.aar/fa65a5e87792ea0aec5e3030ed520da3/AndroidManifest.xml:17:1-22:12
MERGED from [android.arch.lifecycle:viewmodel:1.1.0] /home/bruno/.gradle/caches/transforms-1/files-1.1/viewmodel-1.1.0.aar/b994e1c4980e34e08dbd0ca4a6104ef0/AndroidManifest.xml:17:1-22:12
MERGED from [android.arch.core:runtime:1.1.0] /home/bruno/.gradle/caches/transforms-1/files-1.1/runtime-1.1.0.aar/04b91aa80d80f97b17d9cd0a13938027/AndroidManifest.xml:17:1-22:12
INJECTED from /home/bruno/projects/brlab/pink-martini/mydesign/platforms/android/app/src/main/AndroidManifest.xml:2:1-18:12
INJECTED from /home/bruno/projects/brlab/pink-martini/mydesign/platforms/android/app/src/main/AndroidManifest.xml:2:1-18:12
INJECTED from /home/bruno/projects/brlab/pink-martini/mydesign/platforms/android/app/src/main/AndroidManifest.xml:2:1-18:12
	package
		ADDED from /home/bruno/projects/brlab/pink-martini/mydesign/platforms/android/app/src/main/AndroidManifest.xml:2:102-136
		INJECTED from /home/bruno/projects/brlab/pink-martini/mydesign/platforms/android/app/src/main/AndroidManifest.xml
		INJECTED from /home/bruno/projects/brlab/pink-martini/mydesign/platforms/android/app/src/main/AndroidManifest.xml
	android:versionName
		ADDED from /home/bruno/projects/brlab/pink-martini/mydesign/platforms/android/app/src/main/AndroidManifest.xml:2:74-101
		INJECTED from /home/bruno/projects/brlab/pink-martini/mydesign/platforms/android/app/src/main/AndroidManifest.xml
		INJECTED from /home/bruno/projects/brlab/pink-martini/mydesign/platforms/android/app/src/main/AndroidManifest.xml
	android:hardwareAccelerated
		ADDED from /home/bruno/projects/brlab/pink-martini/mydesign/platforms/android/app/src/main/AndroidManifest.xml:2:11-45
	xmlns:android
		ADDED from /home/bruno/projects/brlab/pink-martini/mydesign/platforms/android/app/src/main/AndroidManifest.xml:2:137-195
	android:versionCode
		ADDED from /home/bruno/projects/brlab/pink-martini/mydesign/platforms/android/app/src/main/AndroidManifest.xml:2:46-73
		INJECTED from /home/bruno/projects/brlab/pink-martini/mydesign/platforms/android/app/src/main/AndroidManifest.xml
		INJECTED from /home/bruno/projects/brlab/pink-martini/mydesign/platforms/android/app/src/main/AndroidManifest.xml
supports-screens
ADDED from /home/bruno/projects/brlab/pink-martini/mydesign/platforms/android/app/src/main/AndroidManifest.xml:3:5-191
	android:largeScreens
		ADDED from /home/bruno/projects/brlab/pink-martini/mydesign/platforms/android/app/src/main/AndroidManifest.xml:3:49-76
	android:smallScreens
		ADDED from /home/bruno/projects/brlab/pink-martini/mydesign/platforms/android/app/src/main/AndroidManifest.xml:3:132-159
	android:normalScreens
		ADDED from /home/bruno/projects/brlab/pink-martini/mydesign/platforms/android/app/src/main/AndroidManifest.xml:3:77-105
	android:xlargeScreens
		ADDED from /home/bruno/projects/brlab/pink-martini/mydesign/platforms/android/app/src/main/AndroidManifest.xml:3:160-188
	android:resizeable
		ADDED from /home/bruno/projects/brlab/pink-martini/mydesign/platforms/android/app/src/main/AndroidManifest.xml:3:106-131
	android:anyDensity
		ADDED from /home/bruno/projects/brlab/pink-martini/mydesign/platforms/android/app/src/main/AndroidManifest.xml:3:23-48
uses-permission#android.permission.INTERNET
ADDED from /home/bruno/projects/brlab/pink-martini/mydesign/platforms/android/app/src/main/AndroidManifest.xml:4:5-67
	android:name
		ADDED from /home/bruno/projects/brlab/pink-martini/mydesign/platforms/android/app/src/main/AndroidManifest.xml:4:22-64
application
ADDED from /home/bruno/projects/brlab/pink-martini/mydesign/platforms/android/app/src/main/AndroidManifest.xml:5:5-15:19
MERGED from [com.facebook.android:facebook-android-sdk:4.33.0] /home/bruno/.gradle/caches/transforms-1/files-1.1/facebook-android-sdk-4.33.0.aar/22de8b3f7bf20fe227bd1c2f19a6e21f/AndroidManifest.xml:28:5-29:19
MERGED from [com.facebook.android:facebook-android-sdk:4.33.0] /home/bruno/.gradle/caches/transforms-1/files-1.1/facebook-android-sdk-4.33.0.aar/22de8b3f7bf20fe227bd1c2f19a6e21f/AndroidManifest.xml:28:5-29:19
MERGED from [com.facebook.android:facebook-login:4.33.0] /home/bruno/.gradle/caches/transforms-1/files-1.1/facebook-login-4.33.0.aar/3aa0478e4d971d9a54038182b76e4536/AndroidManifest.xml:28:5-29:19
MERGED from [com.facebook.android:facebook-login:4.33.0] /home/bruno/.gradle/caches/transforms-1/files-1.1/facebook-login-4.33.0.aar/3aa0478e4d971d9a54038182b76e4536/AndroidManifest.xml:28:5-29:19
MERGED from [com.facebook.android:facebook-share:4.33.0] /home/bruno/.gradle/caches/transforms-1/files-1.1/facebook-share-4.33.0.aar/88439531dfd0cd1c273cddc10b833fb8/AndroidManifest.xml:28:5-29:19
MERGED from [com.facebook.android:facebook-share:4.33.0] /home/bruno/.gradle/caches/transforms-1/files-1.1/facebook-share-4.33.0.aar/88439531dfd0cd1c273cddc10b833fb8/AndroidManifest.xml:28:5-29:19
MERGED from [com.facebook.android:facebook-common:4.33.0] /home/bruno/.gradle/caches/transforms-1/files-1.1/facebook-common-4.33.0.aar/6e21fc9c3d492a3fe7f82626da25cb32/AndroidManifest.xml:28:5-34:19
MERGED from [com.facebook.android:facebook-common:4.33.0] /home/bruno/.gradle/caches/transforms-1/files-1.1/facebook-common-4.33.0.aar/6e21fc9c3d492a3fe7f82626da25cb32/AndroidManifest.xml:28:5-34:19
MERGED from [com.facebook.android:facebook-places:4.33.0] /home/bruno/.gradle/caches/transforms-1/files-1.1/facebook-places-4.33.0.aar/36af5df1ed37b3f7192d1777df83580f/AndroidManifest.xml:28:5-29:19
MERGED from [com.facebook.android:facebook-places:4.33.0] /home/bruno/.gradle/caches/transforms-1/files-1.1/facebook-places-4.33.0.aar/36af5df1ed37b3f7192d1777df83580f/AndroidManifest.xml:28:5-29:19
MERGED from [com.facebook.android:facebook-applinks:4.33.0] /home/bruno/.gradle/caches/transforms-1/files-1.1/facebook-applinks-4.33.0.aar/b1629e5eb847b930f7a77b2a590ec04e/AndroidManifest.xml:28:5-29:19
MERGED from [com.facebook.android:facebook-applinks:4.33.0] /home/bruno/.gradle/caches/transforms-1/files-1.1/facebook-applinks-4.33.0.aar/b1629e5eb847b930f7a77b2a590ec04e/AndroidManifest.xml:28:5-29:19
MERGED from [com.facebook.android:facebook-messenger:4.33.0] /home/bruno/.gradle/caches/transforms-1/files-1.1/facebook-messenger-4.33.0.aar/c5080523398476033c641d791a6d70a7/AndroidManifest.xml:28:5-29:19
MERGED from [com.facebook.android:facebook-messenger:4.33.0] /home/bruno/.gradle/caches/transforms-1/files-1.1/facebook-messenger-4.33.0.aar/c5080523398476033c641d791a6d70a7/AndroidManifest.xml:28:5-29:19
MERGED from [com.facebook.android:facebook-core:4.33.0] /home/bruno/.gradle/caches/transforms-1/files-1.1/facebook-core-4.33.0.aar/c6e66cfeae98fe979ba81904047bfd1e/AndroidManifest.xml:28:5-51:19
MERGED from [com.facebook.android:facebook-core:4.33.0] /home/bruno/.gradle/caches/transforms-1/files-1.1/facebook-core-4.33.0.aar/c6e66cfeae98fe979ba81904047bfd1e/AndroidManifest.xml:28:5-51:19
	android:supportsRtl
		ADDED from /home/bruno/projects/brlab/pink-martini/mydesign/platforms/android/app/src/main/AndroidManifest.xml:5:114-140
	android:label
		ADDED from /home/bruno/projects/brlab/pink-martini/mydesign/platforms/android/app/src/main/AndroidManifest.xml:5:81-113
	android:hardwareAccelerated
		ADDED from /home/bruno/projects/brlab/pink-martini/mydesign/platforms/android/app/src/main/AndroidManifest.xml:5:18-52
	android:icon
		ADDED from /home/bruno/projects/brlab/pink-martini/mydesign/platforms/android/app/src/main/AndroidManifest.xml:5:53-80
activity#com.pinkmartini.mydesign.MainActivity
ADDED from /home/bruno/projects/brlab/pink-martini/mydesign/platforms/android/app/src/main/AndroidManifest.xml:6:9-11:20
	android:screenOrientation
		ADDED from /home/bruno/projects/brlab/pink-martini/mydesign/platforms/android/app/src/main/AndroidManifest.xml:6:194-230
	android:label
		ADDED from /home/bruno/projects/brlab/pink-martini/mydesign/platforms/android/app/src/main/AndroidManifest.xml:6:97-134
	android:launchMode
		ADDED from /home/bruno/projects/brlab/pink-martini/mydesign/platforms/android/app/src/main/AndroidManifest.xml:6:135-165
	android:windowSoftInputMode
		ADDED from /home/bruno/projects/brlab/pink-martini/mydesign/platforms/android/app/src/main/AndroidManifest.xml:6:294-336
	android:configChanges
		ADDED from /home/bruno/projects/brlab/pink-martini/mydesign/platforms/android/app/src/main/AndroidManifest.xml:6:19-96
	android:theme
		ADDED from /home/bruno/projects/brlab/pink-martini/mydesign/platforms/android/app/src/main/AndroidManifest.xml:6:231-293
	android:name
		ADDED from /home/bruno/projects/brlab/pink-martini/mydesign/platforms/android/app/src/main/AndroidManifest.xml:6:166-193
intent-filter#android.intent.action.MAIN+android.intent.category.LAUNCHER
ADDED from /home/bruno/projects/brlab/pink-martini/mydesign/platforms/android/app/src/main/AndroidManifest.xml:7:13-10:29
	android:label
		ADDED from /home/bruno/projects/brlab/pink-martini/mydesign/platforms/android/app/src/main/AndroidManifest.xml:7:28-65
action#android.intent.action.MAIN
ADDED from /home/bruno/projects/brlab/pink-martini/mydesign/platforms/android/app/src/main/AndroidManifest.xml:8:17-69
	android:name
		ADDED from /home/bruno/projects/brlab/pink-martini/mydesign/platforms/android/app/src/main/AndroidManifest.xml:8:25-66
category#android.intent.category.LAUNCHER
ADDED from /home/bruno/projects/brlab/pink-martini/mydesign/platforms/android/app/src/main/AndroidManifest.xml:9:17-77
	android:name
		ADDED from /home/bruno/projects/brlab/pink-martini/mydesign/platforms/android/app/src/main/AndroidManifest.xml:9:27-74
meta-data#com.facebook.sdk.ApplicationId
ADDED from /home/bruno/projects/brlab/pink-martini/mydesign/platforms/android/app/src/main/AndroidManifest.xml:12:9-102
	android:value
		ADDED from /home/bruno/projects/brlab/pink-martini/mydesign/platforms/android/app/src/main/AndroidManifest.xml:12:66-99
	android:name
		ADDED from /home/bruno/projects/brlab/pink-martini/mydesign/platforms/android/app/src/main/AndroidManifest.xml:12:20-65
meta-data#com.facebook.sdk.ApplicationName
ADDED from /home/bruno/projects/brlab/pink-martini/mydesign/platforms/android/app/src/main/AndroidManifest.xml:13:9-106
	android:value
		ADDED from /home/bruno/projects/brlab/pink-martini/mydesign/platforms/android/app/src/main/AndroidManifest.xml:13:68-103
	android:name
		ADDED from /home/bruno/projects/brlab/pink-martini/mydesign/platforms/android/app/src/main/AndroidManifest.xml:13:20-67
activity#com.facebook.FacebookActivity
ADDED from /home/bruno/projects/brlab/pink-martini/mydesign/platforms/android/app/src/main/AndroidManifest.xml:14:9-186
MERGED from [com.facebook.android:facebook-common:4.33.0] /home/bruno/.gradle/caches/transforms-1/files-1.1/facebook-common-4.33.0.aar/6e21fc9c3d492a3fe7f82626da25cb32/AndroidManifest.xml:29:9-32:66
MERGED from [com.facebook.android:facebook-common:4.33.0] /home/bruno/.gradle/caches/transforms-1/files-1.1/facebook-common-4.33.0.aar/6e21fc9c3d492a3fe7f82626da25cb32/AndroidManifest.xml:29:9-32:66
	android:label
		ADDED from /home/bruno/projects/brlab/pink-martini/mydesign/platforms/android/app/src/main/AndroidManifest.xml:14:103-138
	android:configChanges
		ADDED from /home/bruno/projects/brlab/pink-martini/mydesign/platforms/android/app/src/main/AndroidManifest.xml:14:19-102
	android:theme
		ADDED from [com.facebook.android:facebook-common:4.33.0] /home/bruno/.gradle/caches/transforms-1/files-1.1/facebook-common-4.33.0.aar/6e21fc9c3d492a3fe7f82626da25cb32/AndroidManifest.xml:32:13-63
	android:name
		ADDED from /home/bruno/projects/brlab/pink-martini/mydesign/platforms/android/app/src/main/AndroidManifest.xml:14:139-183
uses-sdk
ADDED from /home/bruno/projects/brlab/pink-martini/mydesign/platforms/android/app/src/main/AndroidManifest.xml:16:5-74
MERGED from [com.facebook.android:facebook-android-sdk:4.33.0] /home/bruno/.gradle/caches/transforms-1/files-1.1/facebook-android-sdk-4.33.0.aar/22de8b3f7bf20fe227bd1c2f19a6e21f/AndroidManifest.xml:24:5-26:41
MERGED from [com.facebook.android:facebook-android-sdk:4.33.0] /home/bruno/.gradle/caches/transforms-1/files-1.1/facebook-android-sdk-4.33.0.aar/22de8b3f7bf20fe227bd1c2f19a6e21f/AndroidManifest.xml:24:5-26:41
MERGED from [:CordovaLib] /home/bruno/projects/brlab/pink-martini/mydesign/platforms/android/CordovaLib/build/intermediates/manifests/full/release/AndroidManifest.xml:25:5-44
MERGED from [:CordovaLib] /home/bruno/projects/brlab/pink-martini/mydesign/platforms/android/CordovaLib/build/intermediates/manifests/full/release/AndroidManifest.xml:25:5-44
MERGED from [com.facebook.android:facebook-login:4.33.0] /home/bruno/.gradle/caches/transforms-1/files-1.1/facebook-login-4.33.0.aar/3aa0478e4d971d9a54038182b76e4536/AndroidManifest.xml:24:5-26:41
MERGED from [com.facebook.android:facebook-login:4.33.0] /home/bruno/.gradle/caches/transforms-1/files-1.1/facebook-login-4.33.0.aar/3aa0478e4d971d9a54038182b76e4536/AndroidManifest.xml:24:5-26:41
MERGED from [com.facebook.android:facebook-share:4.33.0] /home/bruno/.gradle/caches/transforms-1/files-1.1/facebook-share-4.33.0.aar/88439531dfd0cd1c273cddc10b833fb8/AndroidManifest.xml:24:5-26:41
MERGED from [com.facebook.android:facebook-share:4.33.0] /home/bruno/.gradle/caches/transforms-1/files-1.1/facebook-share-4.33.0.aar/88439531dfd0cd1c273cddc10b833fb8/AndroidManifest.xml:24:5-26:41
MERGED from [com.facebook.android:facebook-common:4.33.0] /home/bruno/.gradle/caches/transforms-1/files-1.1/facebook-common-4.33.0.aar/6e21fc9c3d492a3fe7f82626da25cb32/AndroidManifest.xml:24:5-26:41
MERGED from [com.facebook.android:facebook-common:4.33.0] /home/bruno/.gradle/caches/transforms-1/files-1.1/facebook-common-4.33.0.aar/6e21fc9c3d492a3fe7f82626da25cb32/AndroidManifest.xml:24:5-26:41
MERGED from [com.facebook.android:facebook-places:4.33.0] /home/bruno/.gradle/caches/transforms-1/files-1.1/facebook-places-4.33.0.aar/36af5df1ed37b3f7192d1777df83580f/AndroidManifest.xml:24:5-26:41
MERGED from [com.facebook.android:facebook-places:4.33.0] /home/bruno/.gradle/caches/transforms-1/files-1.1/facebook-places-4.33.0.aar/36af5df1ed37b3f7192d1777df83580f/AndroidManifest.xml:24:5-26:41
MERGED from [com.facebook.android:facebook-applinks:4.33.0] /home/bruno/.gradle/caches/transforms-1/files-1.1/facebook-applinks-4.33.0.aar/b1629e5eb847b930f7a77b2a590ec04e/AndroidManifest.xml:24:5-26:41
MERGED from [com.facebook.android:facebook-applinks:4.33.0] /home/bruno/.gradle/caches/transforms-1/files-1.1/facebook-applinks-4.33.0.aar/b1629e5eb847b930f7a77b2a590ec04e/AndroidManifest.xml:24:5-26:41
MERGED from [com.facebook.android:facebook-messenger:4.33.0] /home/bruno/.gradle/caches/transforms-1/files-1.1/facebook-messenger-4.33.0.aar/c5080523398476033c641d791a6d70a7/AndroidManifest.xml:24:5-26:41
MERGED from [com.facebook.android:facebook-messenger:4.33.0] /home/bruno/.gradle/caches/transforms-1/files-1.1/facebook-messenger-4.33.0.aar/c5080523398476033c641d791a6d70a7/AndroidManifest.xml:24:5-26:41
MERGED from [com.facebook.android:facebook-core:4.33.0] /home/bruno/.gradle/caches/transforms-1/files-1.1/facebook-core-4.33.0.aar/c6e66cfeae98fe979ba81904047bfd1e/AndroidManifest.xml:24:5-26:41
MERGED from [com.facebook.android:facebook-core:4.33.0] /home/bruno/.gradle/caches/transforms-1/files-1.1/facebook-core-4.33.0.aar/c6e66cfeae98fe979ba81904047bfd1e/AndroidManifest.xml:24:5-26:41
MERGED from [com.android.support:support-v4:27.1.1] /home/bruno/.gradle/caches/transforms-1/files-1.1/support-v4-27.1.1.aar/47aec8e4e19314ffbbf1dab23e35bf5d/AndroidManifest.xml:20:5-44
MERGED from [com.android.support:support-v4:27.1.1] /home/bruno/.gradle/caches/transforms-1/files-1.1/support-v4-27.1.1.aar/47aec8e4e19314ffbbf1dab23e35bf5d/AndroidManifest.xml:20:5-44
MERGED from [com.android.support:appcompat-v7:27.1.1] /home/bruno/.gradle/caches/transforms-1/files-1.1/appcompat-v7-27.1.1.aar/ab83d2bda4822d4c1793a95280f08f98/AndroidManifest.xml:20:5-44
MERGED from [com.android.support:appcompat-v7:27.1.1] /home/bruno/.gradle/caches/transforms-1/files-1.1/appcompat-v7-27.1.1.aar/ab83d2bda4822d4c1793a95280f08f98/AndroidManifest.xml:20:5-44
MERGED from [com.android.support:customtabs:27.1.1] /home/bruno/.gradle/caches/transforms-1/files-1.1/customtabs-27.1.1.aar/9cfed86e93b9bc34ac2e6e86d2d796ae/AndroidManifest.xml:20:5-44
MERGED from [com.android.support:customtabs:27.1.1] /home/bruno/.gradle/caches/transforms-1/files-1.1/customtabs-27.1.1.aar/9cfed86e93b9bc34ac2e6e86d2d796ae/AndroidManifest.xml:20:5-44
MERGED from [com.android.support:support-fragment:27.1.1] /home/bruno/.gradle/caches/transforms-1/files-1.1/support-fragment-27.1.1.aar/7c02f0945a2de97e3849fc8290fb4901/AndroidManifest.xml:20:5-44
MERGED from [com.android.support:support-fragment:27.1.1] /home/bruno/.gradle/caches/transforms-1/files-1.1/support-fragment-27.1.1.aar/7c02f0945a2de97e3849fc8290fb4901/AndroidManifest.xml:20:5-44
MERGED from [com.android.support:animated-vector-drawable:27.1.1] /home/bruno/.gradle/caches/transforms-1/files-1.1/animated-vector-drawable-27.1.1.aar/2d14247fd1361dca4a4a972935289f29/AndroidManifest.xml:20:5-44
MERGED from [com.android.support:animated-vector-drawable:27.1.1] /home/bruno/.gradle/caches/transforms-1/files-1.1/animated-vector-drawable-27.1.1.aar/2d14247fd1361dca4a4a972935289f29/AndroidManifest.xml:20:5-44
MERGED from [com.android.support:support-core-ui:27.1.1] /home/bruno/.gradle/caches/transforms-1/files-1.1/support-core-ui-27.1.1.aar/b7217dcb701e113d2abdc17d6753a5ff/AndroidManifest.xml:20:5-44
MERGED from [com.android.support:support-core-ui:27.1.1] /home/bruno/.gradle/caches/transforms-1/files-1.1/support-core-ui-27.1.1.aar/b7217dcb701e113d2abdc17d6753a5ff/AndroidManifest.xml:20:5-44
MERGED from [com.android.support:support-core-utils:27.1.1] /home/bruno/.gradle/caches/transforms-1/files-1.1/support-core-utils-27.1.1.aar/89097c62fef285f8c99ec4e5ea4659bb/AndroidManifest.xml:20:5-44
MERGED from [com.android.support:support-core-utils:27.1.1] /home/bruno/.gradle/caches/transforms-1/files-1.1/support-core-utils-27.1.1.aar/89097c62fef285f8c99ec4e5ea4659bb/AndroidManifest.xml:20:5-44
MERGED from [com.android.support:cardview-v7:27.1.1] /home/bruno/.gradle/caches/transforms-1/files-1.1/cardview-v7-27.1.1.aar/0d58d4a3a177227ac353030e592b7d4a/AndroidManifest.xml:20:5-44
MERGED from [com.android.support:cardview-v7:27.1.1] /home/bruno/.gradle/caches/transforms-1/files-1.1/cardview-v7-27.1.1.aar/0d58d4a3a177227ac353030e592b7d4a/AndroidManifest.xml:20:5-44
MERGED from [com.android.support:support-media-compat:27.1.1] /home/bruno/.gradle/caches/transforms-1/files-1.1/support-media-compat-27.1.1.aar/4f65de837edf8c5ef3108ef3ebd4ad12/AndroidManifest.xml:20:5-44
MERGED from [com.android.support:support-media-compat:27.1.1] /home/bruno/.gradle/caches/transforms-1/files-1.1/support-media-compat-27.1.1.aar/4f65de837edf8c5ef3108ef3ebd4ad12/AndroidManifest.xml:20:5-44
MERGED from [com.android.support:support-vector-drawable:27.1.1] /home/bruno/.gradle/caches/transforms-1/files-1.1/support-vector-drawable-27.1.1.aar/734c3bc8f5193dfae92e0d31107f1caf/AndroidManifest.xml:20:5-44
MERGED from [com.android.support:support-vector-drawable:27.1.1] /home/bruno/.gradle/caches/transforms-1/files-1.1/support-vector-drawable-27.1.1.aar/734c3bc8f5193dfae92e0d31107f1caf/AndroidManifest.xml:20:5-44
MERGED from [com.android.support:support-compat:27.1.1] /home/bruno/.gradle/caches/transforms-1/files-1.1/support-compat-27.1.1.aar/df6590bfd528b4a76132013e45354d61/AndroidManifest.xml:20:5-44
MERGED from [com.android.support:support-compat:27.1.1] /home/bruno/.gradle/caches/transforms-1/files-1.1/support-compat-27.1.1.aar/df6590bfd528b4a76132013e45354d61/AndroidManifest.xml:20:5-44
MERGED from [android.arch.lifecycle:runtime:1.1.0] /home/bruno/.gradle/caches/transforms-1/files-1.1/runtime-1.1.0.aar/cd981e2d2fa9524b86d3ef9a45339fdd/AndroidManifest.xml:20:5-44
MERGED from [android.arch.lifecycle:runtime:1.1.0] /home/bruno/.gradle/caches/transforms-1/files-1.1/runtime-1.1.0.aar/cd981e2d2fa9524b86d3ef9a45339fdd/AndroidManifest.xml:20:5-44
MERGED from [android.arch.lifecycle:livedata-core:1.1.0] /home/bruno/.gradle/caches/transforms-1/files-1.1/livedata-core-1.1.0.aar/fa65a5e87792ea0aec5e3030ed520da3/AndroidManifest.xml:20:5-44
MERGED from [android.arch.lifecycle:livedata-core:1.1.0] /home/bruno/.gradle/caches/transforms-1/files-1.1/livedata-core-1.1.0.aar/fa65a5e87792ea0aec5e3030ed520da3/AndroidManifest.xml:20:5-44
MERGED from [android.arch.lifecycle:viewmodel:1.1.0] /home/bruno/.gradle/caches/transforms-1/files-1.1/viewmodel-1.1.0.aar/b994e1c4980e34e08dbd0ca4a6104ef0/AndroidManifest.xml:20:5-44
MERGED from [android.arch.lifecycle:viewmodel:1.1.0] /home/bruno/.gradle/caches/transforms-1/files-1.1/viewmodel-1.1.0.aar/b994e1c4980e34e08dbd0ca4a6104ef0/AndroidManifest.xml:20:5-44
MERGED from [android.arch.core:runtime:1.1.0] /home/bruno/.gradle/caches/transforms-1/files-1.1/runtime-1.1.0.aar/04b91aa80d80f97b17d9cd0a13938027/AndroidManifest.xml:20:5-44
MERGED from [android.arch.core:runtime:1.1.0] /home/bruno/.gradle/caches/transforms-1/files-1.1/runtime-1.1.0.aar/04b91aa80d80f97b17d9cd0a13938027/AndroidManifest.xml:20:5-44
	android:targetSdkVersion
		ADDED from /home/bruno/projects/brlab/pink-martini/mydesign/platforms/android/app/src/main/AndroidManifest.xml:16:42-71
	android:minSdkVersion
		ADDED from /home/bruno/projects/brlab/pink-martini/mydesign/platforms/android/app/src/main/AndroidManifest.xml:16:15-41
uses-permission#android.permission.ACCESS_NETWORK_STATE
ADDED from /home/bruno/projects/brlab/pink-martini/mydesign/platforms/android/app/src/main/AndroidManifest.xml:17:5-79
	android:name
		ADDED from /home/bruno/projects/brlab/pink-martini/mydesign/platforms/android/app/src/main/AndroidManifest.xml:17:22-76
activity#com.facebook.CustomTabMainActivity
ADDED from [com.facebook.android:facebook-common:4.33.0] /home/bruno/.gradle/caches/transforms-1/files-1.1/facebook-common-4.33.0.aar/6e21fc9c3d492a3fe7f82626da25cb32/AndroidManifest.xml:33:9-71
	android:name
		ADDED from [com.facebook.android:facebook-common:4.33.0] /home/bruno/.gradle/caches/transforms-1/files-1.1/facebook-common-4.33.0.aar/6e21fc9c3d492a3fe7f82626da25cb32/AndroidManifest.xml:33:19-68
provider#com.facebook.internal.FacebookInitProvider
ADDED from [com.facebook.android:facebook-core:4.33.0] /home/bruno/.gradle/caches/transforms-1/files-1.1/facebook-core-4.33.0.aar/c6e66cfeae98fe979ba81904047bfd1e/AndroidManifest.xml:39:9-42:40
	android:authorities
		ADDED from [com.facebook.android:facebook-core:4.33.0] /home/bruno/.gradle/caches/transforms-1/files-1.1/facebook-core-4.33.0.aar/c6e66cfeae98fe979ba81904047bfd1e/AndroidManifest.xml:41:13-72
	android:exported
		ADDED from [com.facebook.android:facebook-core:4.33.0] /home/bruno/.gradle/caches/transforms-1/files-1.1/facebook-core-4.33.0.aar/c6e66cfeae98fe979ba81904047bfd1e/AndroidManifest.xml:42:13-37
	android:name
		ADDED from [com.facebook.android:facebook-core:4.33.0] /home/bruno/.gradle/caches/transforms-1/files-1.1/facebook-core-4.33.0.aar/c6e66cfeae98fe979ba81904047bfd1e/AndroidManifest.xml:40:13-70
receiver#com.facebook.CurrentAccessTokenExpirationBroadcastReceiver
ADDED from [com.facebook.android:facebook-core:4.33.0] /home/bruno/.gradle/caches/transforms-1/files-1.1/facebook-core-4.33.0.aar/c6e66cfeae98fe979ba81904047bfd1e/AndroidManifest.xml:44:9-50:20
	android:exported
		ADDED from [com.facebook.android:facebook-core:4.33.0] /home/bruno/.gradle/caches/transforms-1/files-1.1/facebook-core-4.33.0.aar/c6e66cfeae98fe979ba81904047bfd1e/AndroidManifest.xml:46:13-37
	android:name
		ADDED from [com.facebook.android:facebook-core:4.33.0] /home/bruno/.gradle/caches/transforms-1/files-1.1/facebook-core-4.33.0.aar/c6e66cfeae98fe979ba81904047bfd1e/AndroidManifest.xml:45:13-86
intent-filter#com.facebook.sdk.ACTION_CURRENT_ACCESS_TOKEN_CHANGED
ADDED from [com.facebook.android:facebook-core:4.33.0] /home/bruno/.gradle/caches/transforms-1/files-1.1/facebook-core-4.33.0.aar/c6e66cfeae98fe979ba81904047bfd1e/AndroidManifest.xml:47:13-49:29
action#com.facebook.sdk.ACTION_CURRENT_ACCESS_TOKEN_CHANGED
ADDED from [com.facebook.android:facebook-core:4.33.0] /home/bruno/.gradle/caches/transforms-1/files-1.1/facebook-core-4.33.0.aar/c6e66cfeae98fe979ba81904047bfd1e/AndroidManifest.xml:48:17-95
	android:name
		ADDED from [com.facebook.android:facebook-core:4.33.0] /home/bruno/.gradle/caches/transforms-1/files-1.1/facebook-core-4.33.0.aar/c6e66cfeae98fe979ba81904047bfd1e/AndroidManifest.xml:48:25-92
