<?xml version="1.0" encoding="utf-8"?>
<!-- Generator: Adobe Illustrator 19.0.0, SVG Export Plug-In . SVG Version: 6.00 Build 0)  -->
<svg version="1.1" id="Layer_1" xmlns="http://www.w3.org/2000/svg" xmlns:xlink="http://www.w3.org/1999/xlink" x="0px" y="0px"
	 viewBox="0 0 57.7 82.7" style="enable-background:new 0 0 57.7 82.7;" xml:space="preserve">
<style type="text/css">
	.st0{fill:#F9F9F9;}
	.st1{fill:#D6D6D6;}
	.st2{fill:none;}
</style>
<circle id="XMLID_1_" class="st0" cx="28.3" cy="28" r="28"/>
<g id="XMLID_4_">
	<path id="XMLID_5_" class="st1" d="M2.4,69.5v-0.1c0.2,0,0.4,0,0.5-0.1s0.3-0.1,0.4-0.2c0.1-0.1,0.2-0.3,0.2-0.5s0.1-0.5,0.1-0.9
		l0-1.1c0-0.2,0-0.3-0.1-0.5c-0.1-0.2-0.2-0.5-0.5-0.9l-1.5-2.3l-0.3-0.4c-0.2-0.3-0.4-0.5-0.6-0.6c-0.1-0.1-0.2-0.1-0.3-0.1
		s-0.2,0-0.4,0v-0.1h3.8v0.1c-0.3,0-0.5,0-0.6,0.1C3,61.8,2.9,62,2.9,62.2c0,0.1,0,0.2,0.1,0.3s0.1,0.3,0.2,0.4l1.6,2.5l1.4-2.1
		l0.2-0.2c0.1-0.2,0.2-0.4,0.2-0.7c0-0.3-0.1-0.4-0.2-0.6s-0.4-0.2-0.7-0.2v-0.1h2.7v0.1c-0.2,0-0.4,0.1-0.5,0.1S7.6,61.9,7.5,62
		c-0.3,0.3-0.6,0.6-0.9,1.1l-1.3,2C5.1,65.4,5,65.5,5,65.6s-0.1,0.3-0.1,0.6v1.4c0,0.4,0,0.7,0.1,0.9s0.1,0.3,0.2,0.5
		c0.2,0.2,0.5,0.3,0.9,0.3v0.1H2.4z"/>
	<path id="XMLID_7_" class="st1" d="M8.4,67c0-0.6,0.2-1.2,0.7-1.7c0.6-0.6,1.3-0.9,2-0.9s1.5,0.3,2,0.9c0.5,0.5,0.7,1.1,0.7,1.7
		c0,0.6-0.2,1.2-0.7,1.7c-0.5,0.6-1.2,0.9-2.1,0.9s-1.5-0.3-2.1-0.9c-0.2-0.2-0.4-0.5-0.5-0.8S8.4,67.3,8.4,67z M9.5,67
		c0,0.7,0.2,1.3,0.5,1.7c0.3,0.5,0.8,0.8,1.3,0.8c0.2,0,0.4-0.1,0.6-0.2s0.4-0.3,0.5-0.5c0.2-0.2,0.3-0.5,0.4-0.8
		c0.1-0.3,0.1-0.6,0.1-1c0-0.3,0-0.6-0.1-1c-0.1-0.3-0.2-0.6-0.4-0.8c-0.3-0.4-0.7-0.7-1.2-0.7c-0.4,0-0.8,0.2-1.1,0.7
		C9.7,65.7,9.5,66.3,9.5,67z"/>
	<path id="XMLID_10_" class="st1" d="M18.7,69.6c-0.1-0.2-0.1-0.5-0.1-0.7c-0.5,0.5-1.1,0.7-1.7,0.7c-0.5,0-0.9-0.1-1.2-0.4
		c-0.3-0.2-0.4-0.6-0.4-1v-2l0-0.4c0-0.3,0-0.5,0-0.6c0-0.1-0.1-0.2-0.2-0.3c-0.1-0.1-0.3-0.2-0.6-0.2v-0.1h1.7v3c0,0.4,0,0.7,0,0.9
		s0.1,0.4,0.2,0.5c0.1,0.1,0.2,0.2,0.4,0.3s0.3,0.1,0.5,0.1c0.2,0,0.4,0,0.6-0.1c0.2-0.1,0.3-0.2,0.4-0.4c0.1-0.2,0.2-0.3,0.2-0.5
		c0-0.2,0.1-0.5,0.1-1v-1.1l0-0.4c0-0.3,0-0.5,0-0.6c0-0.1-0.1-0.2-0.2-0.3c-0.1-0.1-0.3-0.2-0.6-0.2v-0.1h1.7v3.2
		c0,0.4,0,0.7,0,0.8s0.1,0.3,0.1,0.4c0.1,0.1,0.2,0.2,0.2,0.2s0.2,0.1,0.4,0.1v0.1L18.7,69.6z"/>
	<path id="XMLID_12_" class="st1" d="M22.3,65.3c0.1-0.2,0.3-0.4,0.5-0.6c0.3-0.2,0.7-0.3,1.1-0.3c0.3,0,0.4,0.1,0.6,0.2
		c0.1,0.1,0.2,0.2,0.2,0.4c0,0.1,0,0.2-0.1,0.3s-0.2,0.1-0.3,0.1c-0.1,0-0.2-0.1-0.3-0.2L23.7,65c-0.1-0.2-0.3-0.2-0.5-0.2
		c-0.3,0-0.5,0.2-0.6,0.5c-0.1,0.3-0.2,0.8-0.2,1.4v1.1l0,0.4c0,0.3,0,0.5,0,0.6s0.1,0.2,0.2,0.3c0.1,0.1,0.3,0.2,0.6,0.2v0.1h-2.6
		v-0.1c0.2,0,0.4-0.1,0.5-0.1s0.2-0.2,0.2-0.3c0-0.1,0.1-0.2,0.1-0.4s0-0.4,0-0.8v-1.4c0-0.4,0-0.7,0-0.8s-0.1-0.3-0.1-0.4
		c-0.1-0.1-0.1-0.2-0.2-0.2c-0.1,0-0.2-0.1-0.4-0.1v-0.1l1.5-0.2C22.2,64.8,22.3,65.1,22.3,65.3z"/>
	<path id="XMLID_14_" class="st1" d="M35.1,61.5l0.1,2.6H35c0-0.1-0.1-0.2-0.1-0.3c-0.1-0.4-0.2-0.7-0.3-0.8
		c-0.2-0.3-0.4-0.6-0.7-0.9c-0.2-0.2-0.4-0.4-0.7-0.5s-0.5-0.1-0.8-0.1c-0.4,0-0.8,0.1-1.1,0.3c-0.3,0.2-0.6,0.4-0.8,0.7
		s-0.4,0.7-0.6,1.1c-0.2,0.6-0.3,1.2-0.3,1.9c0,0.6,0.1,1.2,0.2,1.7s0.4,0.9,0.7,1.2c0.5,0.6,1.3,0.9,2.1,0.9c0.4,0,0.8-0.1,1.2-0.2
		s0.6-0.4,0.8-0.7c0.2-0.3,0.4-0.8,0.5-1.3l0.1,0c-0.1,0.6-0.2,1.1-0.5,1.5c-0.3,0.3-0.6,0.6-1,0.8s-0.9,0.3-1.5,0.3
		c-0.5,0-1.1-0.1-1.5-0.2c-0.8-0.3-1.4-0.7-1.8-1.4s-0.7-1.5-0.7-2.4c0-0.7,0.1-1.4,0.4-2s0.6-1.1,1.1-1.5c0.4-0.3,0.8-0.5,1.3-0.7
		s1-0.2,1.5-0.2c0.5,0,1,0.1,1.5,0.3l0.5,0.2c0.1,0,0.2,0.1,0.2,0.1c0.1,0,0.2,0,0.2-0.1c0,0,0.1-0.1,0.1-0.2H35.1z"/>
	<path id="XMLID_20_" class="st1" d="M40.8,68.9L40.8,68.9c0,0.5-0.4,0.7-0.9,0.7c-0.3,0-0.5-0.1-0.7-0.2c-0.1-0.1-0.2-0.2-0.4-0.5
		c-0.3,0.2-0.5,0.4-0.6,0.5c-0.3,0.1-0.5,0.2-0.9,0.2c-0.4,0-0.8-0.1-1-0.3c-0.3-0.2-0.4-0.5-0.4-0.8c0-0.3,0.1-0.6,0.3-0.8
		c0.1-0.1,0.3-0.2,0.4-0.3s0.4-0.1,0.7-0.2c0.3-0.1,0.6-0.2,0.8-0.2s0.3-0.1,0.4-0.2c0.1-0.1,0.2-0.2,0.3-0.3s0.1-0.3,0.1-0.5
		c0-0.5-0.1-0.8-0.3-1c-0.1-0.1-0.2-0.2-0.3-0.2s-0.3-0.1-0.4-0.1c-0.2,0-0.3,0-0.4,0.1s-0.2,0.2-0.3,0.3l-0.1,0.3
		c-0.1,0.2-0.2,0.3-0.4,0.3c-0.1,0-0.2,0-0.3-0.1s-0.1-0.2-0.1-0.3c0-0.2,0.1-0.4,0.4-0.5c0.2-0.1,0.3-0.1,0.6-0.2
		c0.2,0,0.4-0.1,0.7-0.1c0.2,0,0.5,0,0.8,0.1s0.5,0.1,0.7,0.2c0.3,0.1,0.4,0.3,0.5,0.6c0,0.1,0,0.3,0,0.6v2.2c0,0.4,0,0.6,0,0.8
		c0.1,0.3,0.2,0.4,0.5,0.4c0.1,0,0.2,0,0.3-0.1S40.7,69.1,40.8,68.9z M38.9,66.6c-0.2,0.2-0.4,0.3-0.7,0.5c-0.3,0.2-0.5,0.3-0.6,0.3
		c-0.1,0.1-0.2,0.2-0.3,0.3c-0.2,0.2-0.3,0.5-0.3,0.8c0,0.3,0.1,0.5,0.2,0.6c0.1,0.2,0.3,0.3,0.5,0.3c0.2,0,0.4-0.1,0.5-0.2
		c0.2-0.1,0.3-0.3,0.4-0.5c0.1-0.3,0.2-0.6,0.2-1.1V66.6z"/>
	<path id="XMLID_23_" class="st1" d="M42.6,65.3c0.1-0.2,0.3-0.4,0.5-0.6c0.3-0.2,0.7-0.3,1.1-0.3c0.3,0,0.4,0.1,0.6,0.2
		c0.1,0.1,0.2,0.2,0.2,0.4c0,0.1,0,0.2-0.1,0.3s-0.2,0.1-0.3,0.1c-0.1,0-0.2-0.1-0.3-0.2L44,65c-0.1-0.2-0.3-0.2-0.5-0.2
		c-0.3,0-0.5,0.2-0.6,0.5c-0.1,0.3-0.2,0.8-0.2,1.4v1.1l0,0.4c0,0.3,0,0.5,0,0.6s0.1,0.2,0.2,0.3c0.1,0.1,0.3,0.2,0.6,0.2v0.1h-2.6
		v-0.1c0.2,0,0.4-0.1,0.5-0.1s0.2-0.2,0.2-0.3c0-0.1,0.1-0.2,0.1-0.4s0-0.4,0-0.8v-1.4c0-0.4,0-0.7,0-0.8s-0.1-0.3-0.1-0.4
		c-0.1-0.1-0.1-0.2-0.2-0.2c-0.1,0-0.2-0.1-0.4-0.1v-0.1l1.5-0.2C42.6,64.8,42.6,65.1,42.6,65.3z"/>
	<path id="XMLID_25_" class="st1" d="M46.6,64.5h1.5v0.2h-1.5v3.4c0,0.4,0.1,0.7,0.2,0.9c0.1,0.1,0.2,0.2,0.3,0.2
		c0.1,0.1,0.3,0.1,0.4,0.1c0.2,0,0.3,0,0.4-0.1c0.1-0.1,0.2-0.2,0.4-0.4l0.1,0.1c-0.1,0.2-0.3,0.4-0.5,0.5s-0.5,0.2-0.9,0.2
		c-0.5,0-0.8-0.1-1-0.3c-0.1-0.1-0.2-0.2-0.2-0.3s-0.1-0.4-0.1-0.7v-3.6h-0.6v-0.1c0.3-0.1,0.5-0.2,0.7-0.5c0.1-0.1,0.2-0.3,0.3-0.4
		c0.1-0.1,0.2-0.3,0.2-0.6l0.1-0.2h0.2V64.5z"/>
	<path id="XMLID_27_" class="st1" d="M51.3,64.6l1.7-0.2v3.4l0,0.4c0,0.3,0,0.5,0,0.6s0.1,0.2,0.2,0.3c0.1,0.1,0.3,0.2,0.6,0.2v0.1
		h-2.6v-0.1c0.2,0,0.4-0.1,0.5-0.1s0.2-0.2,0.2-0.3c0-0.1,0.1-0.2,0.1-0.4s0-0.4,0-0.8v-1.4c0-0.4,0-0.7,0-0.8s-0.1-0.3-0.1-0.4
		c-0.1-0.1-0.1-0.2-0.2-0.2c-0.1,0-0.2-0.1-0.4-0.1V64.6z M52.5,62.3c-0.2,0-0.3,0-0.4-0.1S52,62,52,61.8c0-0.1,0.1-0.3,0.2-0.4
		c0.1-0.1,0.2-0.1,0.4-0.1s0.3,0,0.4,0.1s0.2,0.2,0.2,0.4c0,0.1,0,0.3-0.2,0.4S52.6,62.3,52.5,62.3z"/>
	<path id="XMLID_30_" class="st1" d="M54.5,69.5v-1.7h0.1c0.1,0.4,0.2,0.7,0.4,1c0.3,0.4,0.7,0.7,1.1,0.7c0.2,0,0.5-0.1,0.6-0.2
		c0.2-0.2,0.3-0.4,0.3-0.7c0-0.2-0.1-0.5-0.2-0.6c-0.1-0.1-0.2-0.2-0.3-0.3c-0.1-0.1-0.3-0.2-0.6-0.3c-0.5-0.3-0.8-0.5-1-0.7
		c-0.2-0.3-0.4-0.5-0.4-0.9c0-0.4,0.1-0.7,0.4-0.9c0.3-0.3,0.6-0.4,1.1-0.4c0.2,0,0.4,0,0.6,0.1l0.2,0.1c0.1,0,0.1,0,0.2,0
		c0.1,0,0.1-0.1,0.2-0.2h0.1l0.1,1.3h-0.1c0-0.2-0.1-0.3-0.1-0.5s-0.1-0.2-0.2-0.3c-0.1-0.1-0.3-0.3-0.4-0.3
		c-0.2-0.1-0.3-0.1-0.5-0.1c-0.2,0-0.4,0.1-0.6,0.2c-0.2,0.2-0.2,0.4-0.2,0.6c0,0.2,0.1,0.4,0.2,0.5c0.1,0.2,0.4,0.3,0.6,0.4
		l0.6,0.3c0.4,0.2,0.6,0.4,0.8,0.6c0.2,0.3,0.3,0.5,0.3,0.9c0,0.4-0.1,0.8-0.4,1c-0.3,0.3-0.7,0.5-1.2,0.5c-0.3,0-0.5-0.1-0.8-0.2
		c-0.2-0.1-0.3-0.1-0.3-0.1s-0.1,0-0.1,0C54.8,69.3,54.7,69.4,54.5,69.5L54.5,69.5z"/>
	<path id="XMLID_32_" class="st1" d="M14.4,77.3c0,0.2,0,0.3,0,0.4c0,0.3,0,0.7,0.1,1s0.2,0.6,0.4,0.8c0.2,0.2,0.4,0.4,0.7,0.5
		c0.3,0.1,0.5,0.2,0.8,0.2c0.2,0,0.4,0,0.6-0.1c0.2-0.1,0.3-0.2,0.5-0.3c0.1-0.1,0.3-0.4,0.4-0.7l0.1,0c-0.1,0.5-0.3,0.8-0.7,1
		s-0.8,0.3-1.3,0.3c-0.5,0-0.9-0.1-1.2-0.2s-0.6-0.4-0.9-0.7c-0.3-0.4-0.5-1-0.5-1.6c0-0.9,0.3-1.6,0.9-2.1c0.5-0.4,1-0.5,1.6-0.5
		c0.3,0,0.6,0.1,0.9,0.2s0.5,0.3,0.7,0.5c0.3,0.3,0.4,0.7,0.4,1.2H14.4z M17,77.1c0-0.4-0.1-0.7-0.2-0.9c-0.1-0.2-0.2-0.3-0.4-0.5
		s-0.4-0.2-0.6-0.2c-0.3,0-0.6,0.1-0.9,0.4c-0.3,0.3-0.4,0.7-0.4,1.1H17z"/>
	<path id="XMLID_35_" class="st1" d="M20.3,75.4c0.1,0.3,0.1,0.5,0.1,0.8c0.2-0.3,0.5-0.5,0.8-0.6s0.6-0.2,1-0.2
		c0.4,0,0.7,0.1,0.9,0.3c0.1,0.1,0.3,0.3,0.5,0.6c0.3-0.3,0.6-0.5,0.9-0.7s0.6-0.2,1-0.2c0.5,0,0.9,0.1,1.1,0.4
		c0.3,0.3,0.4,0.6,0.4,1v2l0,0.4c0,0.3,0,0.5,0,0.6s0.1,0.2,0.2,0.3c0.1,0.1,0.3,0.2,0.6,0.2v0.1h-2.6v-0.1c0.2,0,0.4-0.1,0.5-0.1
		s0.2-0.2,0.2-0.3c0-0.1,0.1-0.2,0.1-0.4s0-0.4,0-0.8v-1.1c0-0.4,0-0.7,0-0.9c0-0.2-0.1-0.4-0.2-0.5c-0.2-0.3-0.5-0.5-0.9-0.5
		c-0.5,0-0.8,0.2-1.1,0.5c-0.2,0.3-0.3,0.8-0.3,1.4v1.1l0,0.4c0,0.3,0,0.5,0,0.6s0.1,0.2,0.2,0.3c0.1,0.1,0.3,0.2,0.6,0.2v0.1h-2.6
		v-0.1c0.2,0,0.4-0.1,0.5-0.1s0.2-0.2,0.2-0.3c0-0.1,0.1-0.2,0.1-0.4s0-0.4,0-0.8v-1.1c0-0.5,0-0.8,0-1c0-0.2-0.1-0.4-0.2-0.5
		c-0.1-0.1-0.2-0.3-0.4-0.3c-0.2-0.1-0.3-0.1-0.5-0.1c-0.2,0-0.4,0.1-0.6,0.2s-0.3,0.2-0.5,0.4c-0.1,0.2-0.2,0.4-0.2,0.6
		c0,0.2-0.1,0.5-0.1,0.9v1.1l0,0.4c0,0.3,0,0.5,0,0.6s0.1,0.2,0.2,0.3c0.1,0.1,0.3,0.2,0.6,0.2v0.1h-2.6v-0.1c0.2,0,0.4-0.1,0.5-0.1
		c0.1-0.1,0.2-0.2,0.2-0.3c0-0.1,0.1-0.2,0.1-0.4c0-0.2,0-0.4,0-0.8v-1.4c0-0.4,0-0.7,0-0.8c0-0.2-0.1-0.3-0.1-0.4
		c-0.1-0.1-0.1-0.2-0.2-0.2s-0.2-0.1-0.4-0.1v-0.1L20.3,75.4z"/>
	<path id="XMLID_37_" class="st1" d="M30,80l0,1.1v0.4c0,0.3,0,0.5,0,0.6s0.1,0.2,0.2,0.3c0.1,0.1,0.3,0.2,0.6,0.2v0.1h-2.6v-0.1
		c0.2,0,0.4-0.1,0.5-0.1s0.2-0.2,0.2-0.3c0-0.1,0.1-0.2,0.1-0.4s0-0.4,0-0.8v-4c0-0.4-0.1-0.8-0.2-0.9s-0.4-0.3-0.7-0.3v-0.1
		l1.7-0.2c0,0.2,0.1,0.4,0.1,0.5V76c0.3-0.2,0.6-0.3,0.8-0.4s0.5-0.1,0.8-0.1c0.6,0,1.1,0.2,1.5,0.5c0.3,0.2,0.5,0.5,0.6,0.8
		c0.1,0.3,0.2,0.7,0.2,1.1c0,0.4-0.1,0.8-0.2,1.2s-0.4,0.7-0.7,0.9c-0.4,0.4-1,0.6-1.6,0.6c-0.3,0-0.5,0-0.8-0.1
		C30.5,80.4,30.3,80.2,30,80z M30,78.1c0,0.5,0,0.9,0.1,1.2c0,0.3,0.1,0.5,0.3,0.7c0.1,0.1,0.3,0.3,0.4,0.4s0.4,0.1,0.5,0.1
		c0.4,0,0.8-0.2,1.1-0.6c0.2-0.2,0.3-0.5,0.4-0.8c0.1-0.3,0.2-0.7,0.2-1c0-0.3,0-0.7-0.1-1c-0.1-0.3-0.2-0.6-0.4-0.8
		c-0.3-0.4-0.6-0.6-1.1-0.6c-0.2,0-0.4,0.1-0.6,0.2c-0.2,0.1-0.3,0.2-0.4,0.4c-0.1,0.2-0.2,0.4-0.3,0.7C30,77.1,30,77.5,30,78.1z"/>
	<path id="XMLID_40_" class="st1" d="M36,75.5h1.5v0.2H36v3.4c0,0.4,0.1,0.7,0.2,0.9c0.1,0.1,0.2,0.2,0.3,0.2
		c0.1,0.1,0.3,0.1,0.4,0.1c0.2,0,0.3,0,0.4-0.1c0.1-0.1,0.2-0.2,0.4-0.4l0.1,0.1c-0.1,0.2-0.3,0.4-0.5,0.5s-0.5,0.2-0.9,0.2
		c-0.5,0-0.8-0.1-1-0.3c-0.1-0.1-0.2-0.2-0.2-0.3s-0.1-0.4-0.1-0.7v-3.6h-0.6v-0.1c0.3-0.1,0.5-0.2,0.7-0.5c0.1-0.1,0.2-0.3,0.3-0.4
		c0.1-0.1,0.2-0.3,0.2-0.6l0.1-0.2H36V75.5z"/>
	<path id="XMLID_42_" class="st1" d="M37.4,75.5h2.3v0.1c-0.2,0-0.3,0.1-0.3,0.1c-0.2,0.1-0.2,0.2-0.2,0.4c0,0.2,0.1,0.4,0.2,0.8
		l1,2.5l0.9-2.1c0.2-0.5,0.3-0.9,0.3-1.1c0-0.2,0-0.3-0.1-0.4s-0.2-0.2-0.4-0.2v-0.1h1.7v0.1c-0.2,0-0.3,0.1-0.4,0.1
		S42.1,75.9,42,76c-0.1,0.2-0.3,0.6-0.5,1.2l-1.7,4.1c-0.2,0.5-0.4,0.8-0.5,1c-0.2,0.2-0.5,0.4-0.8,0.4c-0.2,0-0.4,0-0.5-0.1
		s-0.2-0.2-0.2-0.3c0-0.1,0-0.2,0.1-0.2c0.1-0.1,0.2-0.1,0.3-0.1c0.1,0,0.2,0,0.4,0.1c0.1,0.1,0.2,0.1,0.2,0.1s0.1,0,0.1,0
		c0.2,0,0.4-0.2,0.6-0.5l0.2-0.4c0.1-0.2,0.1-0.3,0.1-0.4c0-0.1-0.1-0.4-0.2-0.8L38.4,77l-0.2-0.4c-0.1-0.3-0.2-0.4-0.2-0.5
		c-0.1-0.1-0.1-0.2-0.2-0.2c-0.1-0.1-0.2-0.1-0.4-0.1V75.5z"/>
	<path id="XMLID_44_" class="st1" d="M43.9,79.2c0.2,0,0.4,0.1,0.5,0.2s0.2,0.3,0.2,0.5c0,0.2-0.1,0.4-0.2,0.5s-0.3,0.2-0.5,0.2
		s-0.4-0.1-0.5-0.2s-0.2-0.3-0.2-0.5c0-0.2,0.1-0.4,0.2-0.5S43.7,79.2,43.9,79.2z"/>
</g>
<path id="XMLID_49_" class="st1" d="M16.4,36C16.4,36,16.4,36,16.4,36l25.5-2.5c0.3,0,0.6-0.2,0.6-0.5l5.2-17.3
	c0.1-0.2,0-0.5-0.1-0.7c-0.1-0.2-0.4-0.3-0.6-0.3h-2c-0.4,0-0.8,0.3-0.9,0.6l-0.3,0.8H46L41.2,32l-24.5,2.4l-4.9-18.3h2.2l-0.2-0.7
	c-0.1-0.4-0.5-0.8-1-0.8h-1.5L9.9,8.7C9.8,8.4,9.5,8.2,9.2,8.2H2c-0.4,0-0.7,0.3-0.7,0.7c0,0.4,0.3,0.7,0.7,0.7h6.6l6.7,25.1
	c-0.8,0.3-1.4,0.8-1.9,1.5c-0.6,0.9-0.9,2-0.7,3.1c0.3,1.8,1.7,3.1,3.5,3.4c-0.2,0.8-0.1,1.6,0.2,2.5c0.6,1.3,1.8,2.3,3.2,2.5
	c2.6,0.4,4.9-1.6,4.9-4.1c0-0.3,0-0.6-0.1-0.8h9c-0.1,0.6-0.1,1.2,0.1,1.9c0.4,1.5,1.6,2.7,3.1,3c2.7,0.6,5.1-1.5,5.1-4.1
	c0-0.3,0-0.6-0.1-0.8h0.2c0.4,0,0.7-0.3,0.7-0.7c0-0.4-0.3-0.7-0.7-0.7h-0.9c-0.8-1.1-2-1.9-3.5-1.9s-2.7,0.7-3.5,1.9H23.8
	c-0.8-1.1-2-1.9-3.5-1.9c-1.4,0-2.7,0.7-3.5,1.9c-1.3,0-2.4-0.9-2.6-2.2c-0.1-0.7,0-1.4,0.4-2C15.1,36.5,15.7,36.1,16.4,36z
	 M37.5,41c1.5,0,2.7,1.2,2.7,2.7c0,1.5-1.2,2.7-2.7,2.7s-2.7-1.2-2.7-2.7C34.8,42.2,36,41,37.5,41z M20.3,41c1.5,0,2.7,1.2,2.7,2.7
	c0,1.5-1.2,2.7-2.7,2.7s-2.7-1.2-2.7-2.7C17.6,42.2,18.8,41,20.3,41z"/>
<line id="XMLID_2_" class="st2" x1="19.7" y1="8.7" x2="20.3" y2="9.7"/>
<g id="XMLID_3_">
	<path id="XMLID_17_" class="st1" d="M34.2,26.1c-0.2,0-0.4-0.1-0.5-0.2L21.9,14.1c-0.3-0.3-0.3-0.8,0-1.1s0.8-0.3,1.1,0l11.8,11.8
		c0.3,0.3,0.3,0.8,0,1.1C34.6,26,34.4,26.1,34.2,26.1z"/>
</g>
<g id="XMLID_16_">
	<path id="XMLID_18_" class="st1" d="M21.7,25.4c0-0.2,0.1-0.4,0.2-0.5L33.7,13c0.3-0.3,0.8-0.3,1.1,0s0.3,0.8,0,1.1L23,25.9
		c-0.3,0.3-0.8,0.3-1.1,0C21.8,25.8,21.7,25.6,21.7,25.4z"/>
</g>
</svg>
