<?xml version="1.0" encoding="utf-8"?>
<!-- Generator: Adobe Illustrator 19.0.0, SVG Export Plug-In . SVG Version: 6.00 Build 0)  -->
<svg version="1.1" id="Layer_1" xmlns="http://www.w3.org/2000/svg" xmlns:xlink="http://www.w3.org/1999/xlink" x="0px" y="0px"
	 viewBox="0 0 282 215.7" style="enable-background:new 0 0 282 215.7;" xml:space="preserve">
<g>
	<path d="M98.4,112.9c3.2-3,3.2-7.9,0-10.9L20.8,29.4c-2.5,4.1-3.8,8.9-3.8,14.1v128.8c0,4.8,1.2,9.4,3.4,13.3L98.4,112.9z"/>
	<path d="M175.2,121.5c-3.2-3-8.4-3-11.7,0l-16.4,15.2c-3.2,3-8.5,3-11.6,0l-17.1-16c-3.2-3-8.4-3-11.7,0l-78.9,73.5
		c4.6,3.5,10.3,5.6,16.5,5.6h185.2h8c5.9,0,11.3-1.9,15.8-5.1L175.2,121.5z"/>
	<path d="M261.6,30.1l-78,72.7c-3.2,3-3.2,7.9,0,10.9l77.5,72.6c2.5-4.1,3.8-9,3.8-14.1V43.4C265,38.6,263.8,34.1,261.6,30.1z"/>
	<path d="M135.5,121c3.2,3,8.4,3,11.7,0l106.9-99.6c-4.6-3.5-10.3-5.6-16.5-5.6H44.4c-5.9,0-11.3,1.9-15.8,5L135.5,121z"/>
</g>
</svg>
